{
	"additionalNodes": [ {
		"children": [],
		"id": "lcSZeCmaWvVhZjkT4eqoy2wcpzJ0hnhI",
		"nodeType": "success",
		"parameters": []
	} ],
	"additionalParameters": {
		"root": {
			"height": 88,
			"width": 180
		}
	},
	"inputs": [],
	"outputs": [],
	"properties": {
		"00SbtGQmsYhKNRDRAvYMEa0ptU95RwUW": {
			"height": 72,
			"title": "wait",
			"width": 131,
			"x": 1820,
			"y": 1103
		},
		"1f28pvVsazW6AhWpYYF0Sz0bGmpDO4dR": {
			"height": 90,
			"title": "luaCondition",
			"width": 334,
			"x": 1464,
			"y": 835
		},
		"277KApOUqypWTnmhDymkP4AtDOx8KbZH": {
			"height": 60,
			"title": "sequence",
			"width": 143,
			"x": 3057,
			"y": -258
		},
		"3vGW13aGIYtvjihyeJV5zaSzJbAIJKgY": {
			"height": 92,
			"title": "store",
			"width": 157,
			"x": 2164,
			"y": 903
		},
		"6AzOxhEhaSiLvvhKXbqMy8KiSBZTcZAX": {
			"height": 70,
			"title": "parallel",
			"width": 202,
			"x": 483,
			"y": 5
		},
		"6Ju8nHd2DCIruk7EvohOJNBvzhbmxj9q": {
			"height": 94,
			"title": "store",
			"width": 465,
			"x": 481,
			"y": -169
		},
		"6vwu3O2Bk9zqzs41ahlmG43NvUMAkzUN": {
			"height": 90,
			"title": "luaCondition",
			"width": 194,
			"x": 1475,
			"y": 1054
		},
		"9Nto75urbowbm3ZGV9cnGt3UCYcQDjYP": {
			"height": 94,
			"title": "store",
			"width": 269,
			"x": 481,
			"y": -268
		},
		"AyTFW7Irhz21pcEhl9FY4iLC3Za3lj36": {
			"height": 94,
			"title": "store",
			"width": 424,
			"x": 3276,
			"y": -471
		},
		"BionG6VtiyAoZKMgOw4D0Xi5SQSEW0lk": {
			"height": 90,
			"title": "luaCondition",
			"width": 986,
			"x": 2049,
			"y": -269
		},
		"BntCdE7oRgdHe13EA0pDOtYjvTqkV2cl": {
			"height": 90,
			"title": "luaCondition",
			"width": 502,
			"x": 1253,
			"y": -137
		},
		"CDUegv8mytlUYfb2eBcS6mah9Rs94tVx": {
			"height": 60,
			"title": "sequence",
			"width": 143,
			"x": 1921,
			"y": 800
		},
		"CHo5mObJ0oRdE0YAQpbwQizIk9OvP1lh": {
			"height": 94,
			"title": "store",
			"width": 268,
			"x": 475,
			"y": -831
		},
		"EaBZ8bJ9HgBVTSUBqM33J2CaPOFn17Nd": {
			"height": 92,
			"title": "store",
			"width": 235,
			"x": 3278,
			"y": -375
		},
		"EikQzVEjMMKEHhPwd10oVthggupFH4qQ": {
			"height": 94,
			"title": "store",
			"width": 405,
			"x": 479,
			"y": -552
		},
		"Ep14bRQedYtxRdPquLQnuDyEuZJrM11N": {
			"height": 214,
			"title": "reference",
			"width": 294,
			"x": 2134,
			"y": 355
		},
		"F4rKBieqfWOzNaOvpPp4IQEXC9vE0xI0": {
			"height": 54,
			"title": "nota_common.manualMissionEnd",
			"width": 296,
			"x": 1818,
			"y": 1008
		},
		"IuKh6MGhJNqcb3bsqre3ySSc6GFgjIYK": {
			"height": 90,
			"title": "luaCondition",
			"width": 381,
			"x": 1498,
			"y": 146
		},
		"KIn68Wzzd6srqRnRbVZihS1mWd8k7vMJ": {
			"height": 92,
			"title": "store",
			"width": 251,
			"x": 2051,
			"y": -112
		},
		"L41RSEWnopJrnIEnS32luFqrr71TR2Aa": {
			"height": 92,
			"title": "store",
			"width": 246,
			"x": 3278,
			"y": -181
		},
		"LC7ME1Slyp2UCmsJZkvbSdqY3qoQ0Wtl": {
			"height": 60,
			"title": "sequence",
			"width": 143,
			"x": 228,
			"y": 10
		},
		"LIMPsXLKd1a31P671xHsJcC5iZ02XV1I": {
			"height": 70,
			"title": "parallel",
			"width": 202,
			"x": 1082,
			"y": 120
		},
		"MUI1plVGh7k0hsx0jjXcnBPj2zEzshxg": {
			"height": 92,
			"title": "store",
			"width": 232,
			"x": 3274,
			"y": 135
		},
		"NB5RlxufNcVp7g6gSO1HiJOtVmQM16an": {
			"height": 60,
			"title": "sequence",
			"width": 143,
			"x": 1928,
			"y": 157
		},
		"PZ8duG1AhhcYzBzuNGV085GwsOo6SiSa": {
			"height": 92,
			"title": "store",
			"width": 208,
			"x": 3283,
			"y": -279
		},
		"QsL0wMkLnP97SrmW45kx5t9qJPAoDJ9G": {
			"height": 72,
			"title": "wait",
			"width": 131,
			"x": 1921,
			"y": 888
		},
		"QvhSlCVGyoype85jFcetOOITstIscpad": {
			"height": 94,
			"title": "store",
			"width": 447,
			"x": 478,
			"y": -643
		},
		"R66iHqkzNgSVFPN9R8i1agqdLqNs40JY": {
			"height": 92,
			"title": "store",
			"width": 131,
			"x": 484,
			"y": -83
		},
		"U6B1l8ipgHWjtaOjoczTIZgDb6mYfxh3": {
			"height": 92,
			"title": "store",
			"width": 141,
			"x": 476,
			"y": -735
		},
		"U84biLXUWf9gajfTqEgRsRpHAxOpzXtn": {
			"height": 60,
			"title": "repeat picking soldiers until last platform ",
			"width": 347,
			"x": 768,
			"y": -47
		},
		"ZWtJMzK3OxXzuQIaqzzatghV2AAf9LkE": {
			"height": 59,
			"title": "sequence",
			"width": 143,
			"x": 1929,
			"y": 472
		},
		"bFSuOdvNXAzZ23FYtOC3QWizpqOrn50Y": {
			"height": 214,
			"title": "reference",
			"width": 294,
			"x": 2132,
			"y": 26
		},
		"dmWwc7rZ7bNu9bPUE0Z5wQ5NGOT60y5w": {
			"height": 90,
			"title": "luaCondition",
			"width": 334,
			"x": 1509,
			"y": 481
		},
		"gonVpkuzbHSvrCjoJeQf1hzkjJpVgKR6": {
			"height": 72,
			"title": "wait",
			"width": 131,
			"x": 1930,
			"y": 549
		},
		"gs1QsVzkRpWqrC39mGb1yYNfYj6LQBhY": {
			"height": 92,
			"title": "store",
			"width": 131,
			"x": 480,
			"y": -364
		},
		"jRaqvfabDM7wfmrIEWWrSUFAFa6G2tMg": {
			"height": 92,
			"title": "store",
			"width": 174,
			"x": 480,
			"y": -461
		},
		"k8xvD5Uhji9nZNJrliPozMhUGNiii74U": {
			"height": 94,
			"title": "store",
			"width": 889,
			"x": 3275,
			"y": 41
		},
		"lcSZeCmaWvVhZjkT4eqoy2wcpzJ0hnhI": {
			"height": 54,
			"title": "success",
			"width": 132,
			"x": 1820,
			"y": 958
		},
		"lsMEwcBzUnERcJNeCWtkX2HfZZsYrcdt": {
			"height": 92,
			"title": "store",
			"width": 157,
			"x": 2138,
			"y": 248
		},
		"ovw0tsyZoN616Ze81DklCCcYEBrcvdk5": {
			"height": 72,
			"title": "wait",
			"width": 131,
			"x": 1923,
			"y": 258
		},
		"t4377lnuX6kpnBGuoGszjg88lm4kYgEx": {
			"height": 214,
			"title": "reference",
			"width": 297,
			"x": 2153,
			"y": 682
		},
		"t8ZQVLDgLlezjds5SSaQdbNUqlBocTOt": {
			"height": 92,
			"title": "store",
			"width": 157,
			"x": 2147,
			"y": 583
		},
		"vO3jArX5ckbcVnQCEfk98pDmDKkb4VTs": {
			"height": 94,
			"title": "store",
			"width": 828,
			"x": 3278,
			"y": -70
		},
		"xLigvgnRGjJzpm9c9gpNfza3PqKiTFwe": {
			"height": 60,
			"title": "sequence",
			"width": 143,
			"x": 1833,
			"y": -127
		}
	},
	"roles": [ {
		"categories": [ "nota_soipask_labs.ctp2_armed" ],
		"name": "Role 0"
	} ],
	"root": {
		"children": [ {
			"children": [],
			"id": "CHo5mObJ0oRdE0YAQpbwQizIk9OvP1lh",
			"nodeType": "luaCommand",
			"parameters": [ {
				"name": "var",
				"value": "info"
			}, {
				"name": "value",
				"value": "core.MissionInfo()"
			}, {
				"name": "scriptName",
				"value": "store"
			} ],
			"scriptName": "store"
		}, {
			"children": [],
			"id": "U6B1l8ipgHWjtaOjoczTIZgDb6mYfxh3",
			"nodeType": "luaCommand",
			"parameters": [ {
				"name": "var",
				"value": "squareSize"
			}, {
				"name": "value",
				"value": "16"
			}, {
				"name": "scriptName",
				"value": "store"
			} ],
			"scriptName": "store"
		}, {
			"children": [],
			"id": "QvhSlCVGyoype85jFcetOOITstIscpad",
			"nodeType": "luaCommand",
			"parameters": [ {
				"name": "var",
				"value": "heightmap"
			}, {
				"name": "value",
				"value": "nota_soipask_labs.GetMapInfo(squareSize)"
			}, {
				"name": "scriptName",
				"value": "store"
			} ],
			"scriptName": "store"
		}, {
			"children": [],
			"id": "EikQzVEjMMKEHhPwd10oVthggupFH4qQ",
			"nodeType": "luaCommand",
			"parameters": [ {
				"name": "var",
				"value": "exploringUnits"
			}, {
				"name": "value",
				"value": "nota_soipask_labs.ShallowCopy(units)"
			}, {
				"name": "scriptName",
				"value": "store"
			} ],
			"scriptName": "store"
		}, {
			"children": [],
			"id": "jRaqvfabDM7wfmrIEWWrSUFAFa6G2tMg",
			"nodeType": "luaCommand",
			"parameters": [ {
				"name": "var",
				"value": "platformNumber"
			}, {
				"name": "value",
				"value": "1"
			}, {
				"name": "scriptName",
				"value": "store"
			} ],
			"scriptName": "store"
		}, {
			"children": [],
			"id": "gs1QsVzkRpWqrC39mGb1yYNfYj6LQBhY",
			"nodeType": "luaCommand",
			"parameters": [ {
				"name": "var",
				"value": "climbers"
			}, {
				"name": "value",
				"value": "{}"
			}, {
				"name": "scriptName",
				"value": "store"
			} ],
			"scriptName": "store"
		}, {
			"children": [],
			"id": "9Nto75urbowbm3ZGV9cnGt3UCYcQDjYP",
			"nodeType": "luaCommand",
			"parameters": [ {
				"name": "var",
				"value": "unitFormation"
			}, {
				"name": "value",
				"value": "formation.Definition(\"swarm\")"
			}, {
				"name": "scriptName",
				"value": "store"
			} ],
			"scriptName": "store"
		}, {
			"children": [],
			"id": "6Ju8nHd2DCIruk7EvohOJNBvzhbmxj9q",
			"nodeType": "luaCommand",
			"parameters": [ {
				"name": "var",
				"value": "unitFormationPositions"
			}, {
				"name": "value",
				"value": "formation.StaticTransform(unitFormation.positions,0,nil,10)"
			}, {
				"name": "scriptName",
				"value": "store"
			} ],
			"scriptName": "store"
		}, {
			"children": [],
			"id": "R66iHqkzNgSVFPN9R8i1agqdLqNs40JY",
			"nodeType": "luaCommand",
			"parameters": [ {
				"name": "var",
				"value": "climbed"
			}, {
				"name": "value",
				"value": "0"
			}, {
				"name": "scriptName",
				"value": "store"
			} ],
			"scriptName": "store"
		}, {
			"children": [ {
				"children": [ {
					"children": [ {
						"children": [ {
							"children": [ {
								"children": [ {
									"children": [],
									"id": "AyTFW7Irhz21pcEhl9FY4iLC3Za3lj36",
									"nodeType": "luaCommand",
									"parameters": [ {
										"name": "var",
										"value": "newExploringUnits"
									}, {
										"name": "value",
										"value": "nota_soipask_labs.PickAny(exploringUnits)"
									}, {
										"name": "scriptName",
										"value": "store"
									} ],
									"scriptName": "store"
								}, {
									"children": [],
									"id": "EaBZ8bJ9HgBVTSUBqM33J2CaPOFn17Nd",
									"nodeType": "luaCommand",
									"parameters": [ {
										"name": "var",
										"value": "exploringUnits"
									}, {
										"name": "value",
										"value": "newExploringUnits.units"
									}, {
										"name": "scriptName",
										"value": "store"
									} ],
									"scriptName": "store"
								}, {
									"children": [],
									"id": "PZ8duG1AhhcYzBzuNGV085GwsOo6SiSa",
									"nodeType": "luaCommand",
									"parameters": [ {
										"name": "var",
										"value": "climbers[#climbers+1]"
									}, {
										"name": "value",
										"value": "{}"
									}, {
										"name": "scriptName",
										"value": "store"
									} ],
									"scriptName": "store"
								}, {
									"children": [],
									"id": "L41RSEWnopJrnIEnS32luFqrr71TR2Aa",
									"nodeType": "luaCommand",
									"parameters": [ {
										"name": "var",
										"value": "climbers[#climbers].id"
									}, {
										"name": "value",
										"value": "newExploringUnits.picked"
									}, {
										"name": "scriptName",
										"value": "store"
									} ],
									"scriptName": "store"
								}, {
									"children": [],
									"id": "vO3jArX5ckbcVnQCEfk98pDmDKkb4VTs",
									"nodeType": "luaCommand",
									"parameters": [ {
										"name": "var",
										"value": "climbers[#climbers].firstMove"
									}, {
										"name": "value",
										"value": "Vec3(heightmap.platforms[platformNumber][1].x,heightmap.groundHeight,heightmap.platforms[platformNumber][1].z)"
									}, {
										"name": "scriptName",
										"value": "store"
									} ],
									"scriptName": "store"
								}, {
									"children": [],
									"id": "k8xvD5Uhji9nZNJrliPozMhUGNiii74U",
									"nodeType": "luaCommand",
									"parameters": [ {
										"name": "var",
										"value": "climbers[#climbers].secondMove"
									}, {
										"name": "value",
										"value": "Vec3(heightmap.platforms[platformNumber][2].x - 4*squareSize,190,heightmap.platforms[platformNumber][2].z - 4*squareSize)"
									}, {
										"name": "scriptName",
										"value": "store"
									} ],
									"scriptName": "store"
								}, {
									"children": [],
									"id": "MUI1plVGh7k0hsx0jjXcnBPj2zEzshxg",
									"nodeType": "luaCommand",
									"parameters": [ {
										"name": "var",
										"value": "climbers[#climbers].ready"
									}, {
										"name": "value",
										"value": "true"
									}, {
										"name": "scriptName",
										"value": "store"
									} ],
									"scriptName": "store"
								} ],
								"id": "277KApOUqypWTnmhDymkP4AtDOx8KbZH",
								"nodeType": "sequence",
								"parameters": []
							} ],
							"id": "BionG6VtiyAoZKMgOw4D0Xi5SQSEW0lk",
							"nodeType": "luaCondition",
							"parameters": [ {
								"name": "expression",
								"value": "not(nota_soipask_labs.IsEnemyInBetween(heightmap.platforms[platformNumber][1], heightmap.platforms[platformNumber][2], info.enemyPositions))"
							}, {
								"name": "repeat",
								"value": "false"
							} ]
						}, {
							"children": [],
							"id": "KIn68Wzzd6srqRnRbVZihS1mWd8k7vMJ",
							"nodeType": "luaCommand",
							"parameters": [ {
								"name": "var",
								"value": "platformNumber"
							}, {
								"name": "value",
								"value": "platformNumber + 1.0"
							}, {
								"name": "scriptName",
								"value": "store"
							} ],
							"scriptName": "store"
						} ],
						"id": "xLigvgnRGjJzpm9c9gpNfza3PqKiTFwe",
						"nodeType": "sequence",
						"parameters": []
					} ],
					"id": "BntCdE7oRgdHe13EA0pDOtYjvTqkV2cl",
					"nodeType": "luaCondition",
					"parameters": [ {
						"name": "expression",
						"value": "#exploringUnits > 0 and platformNumber <= heightmap.platformCount"
					}, {
						"name": "repeat",
						"value": "false"
					} ]
				} ],
				"id": "U84biLXUWf9gajfTqEgRsRpHAxOpzXtn",
				"nodeType": "repeat",
				"parameters": []
			}, {
				"children": [ {
					"children": [ {
						"children": [ {
							"children": [],
							"id": "bFSuOdvNXAzZ23FYtOC3QWizpqOrn50Y",
							"nodeType": "reference",
							"parameters": [ {
								"name": "behaviourName",
								"value": "nota_soipask_labs.moveTwice"
							} ],
							"referenceInputs": [ {
								"name": "id",
								"value": "climbers[1].id"
							}, {
								"name": "firstPos",
								"value": "climbers[1].firstMove"
							}, {
								"name": "secondPos",
								"value": "climbers[1].secondMove"
							}, {
								"name": "formationPos",
								"value": "unitFormationPositions"
							}, {
								"name": "fight",
								"value": "false"
							} ],
							"referenceOutputs": []
						}, {
							"children": [],
							"id": "lsMEwcBzUnERcJNeCWtkX2HfZZsYrcdt",
							"nodeType": "luaCommand",
							"parameters": [ {
								"name": "var",
								"value": "climbed"
							}, {
								"name": "value",
								"value": "climbed + 1"
							}, {
								"name": "scriptName",
								"value": "store"
							} ],
							"scriptName": "store"
						} ],
						"id": "NB5RlxufNcVp7g6gSO1HiJOtVmQM16an",
						"nodeType": "sequence",
						"parameters": []
					}, {
						"children": [],
						"id": "ovw0tsyZoN616Ze81DklCCcYEBrcvdk5",
						"nodeType": "wait",
						"parameters": [ {
							"name": "time",
							"value": -1
						} ]
					} ],
					"id": "IuKh6MGhJNqcb3bsqre3ySSc6GFgjIYK",
					"nodeType": "luaCondition",
					"parameters": [ {
						"name": "expression",
						"value": "climbers[1] ~= nil and climbers[1].ready ~= nil "
					}, {
						"name": "repeat",
						"value": "true"
					} ]
				}, {
					"children": [ {
						"children": [ {
							"children": [],
							"id": "Ep14bRQedYtxRdPquLQnuDyEuZJrM11N",
							"nodeType": "reference",
							"parameters": [ {
								"name": "behaviourName",
								"value": "nota_soipask_labs.moveTwice"
							} ],
							"referenceInputs": [ {
								"name": "id",
								"value": "climbers[2].id"
							}, {
								"name": "firstPos",
								"value": "climbers[2].firstMove"
							}, {
								"name": "secondPos",
								"value": "climbers[2].secondMove"
							}, {
								"name": "formationPos",
								"value": "unitFormationPositions"
							}, {
								"name": "fight",
								"value": "false"
							} ],
							"referenceOutputs": []
						}, {
							"children": [],
							"id": "t8ZQVLDgLlezjds5SSaQdbNUqlBocTOt",
							"nodeType": "luaCommand",
							"parameters": [ {
								"name": "var",
								"value": "climbed"
							}, {
								"name": "value",
								"value": "climbed + 1"
							}, {
								"name": "scriptName",
								"value": "store"
							} ],
							"scriptName": "store"
						} ],
						"id": "ZWtJMzK3OxXzuQIaqzzatghV2AAf9LkE",
						"nodeType": "sequence",
						"parameters": []
					}, {
						"children": [],
						"id": "gonVpkuzbHSvrCjoJeQf1hzkjJpVgKR6",
						"nodeType": "wait",
						"parameters": [ {
							"name": "time",
							"value": -1
						} ]
					} ],
					"id": "dmWwc7rZ7bNu9bPUE0Z5wQ5NGOT60y5w",
					"nodeType": "luaCondition",
					"parameters": [ {
						"name": "expression",
						"value": "climbers[2] ~= nil and climbers[2].ready ~= nil "
					}, {
						"name": "repeat",
						"value": "true"
					} ]
				}, {
					"children": [ {
						"children": [ {
							"children": [],
							"id": "t4377lnuX6kpnBGuoGszjg88lm4kYgEx",
							"nodeType": "reference",
							"parameters": [ {
								"name": "behaviourName",
								"value": "nota_soipask_labs.moveTwice"
							} ],
							"referenceInputs": [ {
								"name": "id",
								"value": "climbers[3].id"
							}, {
								"name": "firstPos",
								"value": "climbers[3].firstMove"
							}, {
								"name": "secondPos",
								"value": "climbers[3].secondMove"
							}, {
								"name": "formationPos",
								"value": "unitFormationPositions"
							}, {
								"name": "fight",
								"value": "false"
							} ],
							"referenceOutputs": []
						}, {
							"children": [],
							"id": "3vGW13aGIYtvjihyeJV5zaSzJbAIJKgY",
							"nodeType": "luaCommand",
							"parameters": [ {
								"name": "var",
								"value": "climbed"
							}, {
								"name": "value",
								"value": "climbed + 1"
							}, {
								"name": "scriptName",
								"value": "store"
							} ],
							"scriptName": "store"
						} ],
						"id": "CDUegv8mytlUYfb2eBcS6mah9Rs94tVx",
						"nodeType": "sequence",
						"parameters": []
					}, {
						"children": [],
						"id": "QsL0wMkLnP97SrmW45kx5t9qJPAoDJ9G",
						"nodeType": "wait",
						"parameters": [ {
							"name": "time",
							"value": -1
						} ]
					} ],
					"id": "1f28pvVsazW6AhWpYYF0Sz0bGmpDO4dR",
					"nodeType": "luaCondition",
					"parameters": [ {
						"name": "expression",
						"value": "climbers[3] ~= nil and climbers[3].ready ~= nil "
					}, {
						"name": "repeat",
						"value": "true"
					} ]
				}, {
					"children": [ {
						"children": [],
						"id": "F4rKBieqfWOzNaOvpPp4IQEXC9vE0xI0",
						"nodeType": "luaCommand",
						"parameters": [ {
							"name": "scriptName",
							"value": "nota_common.manualMissionEnd"
						} ],
						"scriptName": "nota_common.manualMissionEnd"
					}, {
						"children": [],
						"id": "00SbtGQmsYhKNRDRAvYMEa0ptU95RwUW",
						"nodeType": "wait",
						"parameters": [ {
							"name": "time",
							"value": -1
						} ]
					} ],
					"id": "6vwu3O2Bk9zqzs41ahlmG43NvUMAkzUN",
					"nodeType": "luaCondition",
					"parameters": [ {
						"name": "expression",
						"value": "climbed >=3"
					}, {
						"name": "repeat",
						"value": "true"
					} ]
				} ],
				"id": "LIMPsXLKd1a31P671xHsJcC5iZ02XV1I",
				"nodeType": "parallel",
				"parameters": [ {
					"name": "mode",
					"value": "all-success"
				} ]
			} ],
			"id": "6AzOxhEhaSiLvvhKXbqMy8KiSBZTcZAX",
			"nodeType": "parallel",
			"parameters": [ {
				"name": "mode",
				"value": "any-success"
			} ]
		} ],
		"id": "LC7ME1Slyp2UCmsJZkvbSdqY3qoQ0Wtl",
		"nodeType": "sequence",
		"parameters": []
	}
}