{
	"additionalNodes": [],
	"additionalParameters": {
		"root": {
			"height": 88,
			"width": 180
		}
	},
	"inputs": [],
	"outputs": [],
	"properties": {
		"0EGMsBCGty694e4PzzN6Auh19a9Y6tN4": {
			"height": 94,
			"title": "get wind data",
			"width": 248,
			"x": 1226,
			"y": -329
		},
		"2ck0LZvvVKvPLUXGnCLWnbSyLjI3TEEV": {
			"height": 71,
			"title": "selector",
			"width": 132,
			"x": 1054,
			"y": 7
		},
		"A4Rl3LIcuAj4DXPlSdjxre7VIk2unnuj": {
			"height": 62,
			"title": "get analytics",
			"width": 160,
			"x": 759,
			"y": -169
		},
		"F2izo3hNzJFslsRAx3CwBtJjP27m4CAf": {
			"height": 94,
			"title": "draw debug line in direction of the wind",
			"width": 346,
			"x": 1228,
			"y": -125
		},
		"FacgEjIZiYuI9UCvoNLIyMKIozdGCCmU": {
			"height": 60,
			"title": "move in the right direction",
			"width": 245,
			"x": 760,
			"y": 11
		},
		"H6DtoCudMTpWSFvTBBJ0uAyKS6HfTpQf": {
			"height": 60,
			"title": "sequence",
			"width": 143,
			"x": 230,
			"y": 15
		},
		"HQ0SofErRuzXwpmRewYiRFQz8mWAk80R": {
			"height": 92,
			"title": "store",
			"width": 163,
			"x": 1227,
			"y": -223
		},
		"KFc8S9ZefqCpEdTspJpAprBqlMloEfgI": {
			"height": 90,
			"title": "Common.relativeMove",
			"width": 394,
			"x": 1761,
			"y": 91
		},
		"L1Q2LqgvZ2MxRWzoinwkxmI16621jjEt": {
			"height": 60,
			"title": "sequence",
			"width": 143,
			"x": 974,
			"y": -168
		},
		"Mku9N8bKDC8twyiYhxVUkXLSNWexucfK": {
			"height": 60,
			"title": "sequence",
			"width": 143,
			"x": 1555,
			"y": 0
		},
		"OKqDDdSUJ3gAKxX0jELPoL7mUndDduLV": {
			"height": 90,
			"title": "Common.relativeMove",
			"width": 394,
			"x": 1766,
			"y": 218
		},
		"Sr4D65KfDbHw2O72pn2cqLIlyKM5wGNc": {
			"height": 90,
			"title": "luaCondition",
			"width": 194,
			"x": 1234,
			"y": 218
		},
		"YIXnqNkKTgbzCr74u9oqiTQ2H8HsYaES": {
			"height": 92,
			"title": "store - update move",
			"width": 514,
			"x": 1761,
			"y": -13
		},
		"aIFOzBkTCNRDPVpy2r2WmIgXTfwGHuaR": {
			"height": 70,
			"title": "parallel",
			"width": 202,
			"x": 501,
			"y": 12
		},
		"eAnzBuSPpwKJvkTd95fMWxKE7vQq17Q7": {
			"height": 90,
			"title": "luaCondition - is wind updating?",
			"width": 283,
			"x": 1231,
			"y": -11
		},
		"wjBbwcpsRWxSNwGBLqD5jR4Uf8ZHxrdz": {
			"height": 92,
			"title": "store",
			"width": 131,
			"x": 404,
			"y": -149
		}
	},
	"roles": [ {
		"categories": [ "nota_soipask_labs.BattleCommander" ],
		"name": "Commander"
	} ],
	"root": {
		"children": [ {
			"children": [],
			"id": "wjBbwcpsRWxSNwGBLqD5jR4Uf8ZHxrdz",
			"nodeType": "luaCommand",
			"parameters": [ {
				"name": "var",
				"value": "updating"
			}, {
				"name": "value",
				"value": "true"
			}, {
				"name": "scriptName",
				"value": "store"
			} ],
			"scriptName": "store"
		}, {
			"children": [ {
				"children": [ {
					"children": [ {
						"children": [],
						"id": "0EGMsBCGty694e4PzzN6Auh19a9Y6tN4",
						"nodeType": "luaCommand",
						"parameters": [ {
							"name": "var",
							"value": "windNormals"
						}, {
							"name": "value",
							"value": "nota_soipask_labs.Wind()"
						}, {
							"name": "scriptName",
							"value": "store"
						} ],
						"scriptName": "store"
					}, {
						"children": [],
						"id": "HQ0SofErRuzXwpmRewYiRFQz8mWAk80R",
						"nodeType": "luaCommand",
						"parameters": [ {
							"name": "var",
							"value": "updating"
						}, {
							"name": "value",
							"value": "not updating"
						}, {
							"name": "scriptName",
							"value": "store"
						} ],
						"scriptName": "store"
					}, {
						"children": [],
						"id": "F2izo3hNzJFslsRAx3CwBtJjP27m4CAf",
						"nodeType": "luaCommand",
						"parameters": [ {
							"name": "var",
							"value": "_debugLineDrawn"
						}, {
							"name": "value",
							"value": "nota_soipask_labs.DebugWindDirection()"
						}, {
							"name": "scriptName",
							"value": "store"
						} ],
						"scriptName": "store"
					} ],
					"id": "L1Q2LqgvZ2MxRWzoinwkxmI16621jjEt",
					"nodeType": "sequence",
					"parameters": []
				} ],
				"id": "A4Rl3LIcuAj4DXPlSdjxre7VIk2unnuj",
				"nodeType": "repeat",
				"parameters": []
			}, {
				"children": [ {
					"children": [ {
						"children": [ {
							"children": [ {
								"children": [],
								"id": "YIXnqNkKTgbzCr74u9oqiTQ2H8HsYaES",
								"nodeType": "luaCommand",
								"parameters": [ {
									"name": "var",
									"value": "move"
								}, {
									"name": "value",
									"value": "{x = windNormals.normDirX * 120, z = windNormals.normDirZ * 120}"
								}, {
									"name": "scriptName",
									"value": "store"
								} ],
								"scriptName": "store"
							}, {
								"children": [],
								"id": "KFc8S9ZefqCpEdTspJpAprBqlMloEfgI",
								"nodeType": "luaCommand",
								"parameters": [ {
									"name": "dist",
									"value": "{x = move.x, z = move.z}"
								}, {
									"name": "fight",
									"value": "false"
								}, {
									"name": "scriptName",
									"value": "Common.relativeMove"
								} ],
								"scriptName": "Common.relativeMove"
							} ],
							"id": "Mku9N8bKDC8twyiYhxVUkXLSNWexucfK",
							"nodeType": "sequence",
							"parameters": []
						} ],
						"id": "eAnzBuSPpwKJvkTd95fMWxKE7vQq17Q7",
						"nodeType": "luaCondition",
						"parameters": [ {
							"name": "expression",
							"value": "not updating"
						}, {
							"name": "repeat",
							"value": "true"
						} ]
					}, {
						"children": [ {
							"children": [],
							"id": "OKqDDdSUJ3gAKxX0jELPoL7mUndDduLV",
							"nodeType": "luaCommand",
							"parameters": [ {
								"name": "dist",
								"value": "{x = move.x, z = move.z}"
							}, {
								"name": "fight",
								"value": "false"
							}, {
								"name": "scriptName",
								"value": "Common.relativeMove"
							} ],
							"scriptName": "Common.relativeMove"
						} ],
						"id": "Sr4D65KfDbHw2O72pn2cqLIlyKM5wGNc",
						"nodeType": "luaCondition",
						"parameters": [ {
							"name": "expression",
							"value": "move ~= nil"
						}, {
							"name": "repeat",
							"value": "false"
						} ]
					} ],
					"id": "2ck0LZvvVKvPLUXGnCLWnbSyLjI3TEEV",
					"nodeType": "selector",
					"parameters": [ {
						"name": "active",
						"value": "true"
					} ]
				} ],
				"id": "FacgEjIZiYuI9UCvoNLIyMKIozdGCCmU",
				"nodeType": "repeat",
				"parameters": []
			} ],
			"id": "aIFOzBkTCNRDPVpy2r2WmIgXTfwGHuaR",
			"nodeType": "parallel",
			"parameters": [ {
				"name": "mode",
				"value": "all-success"
			} ]
		} ],
		"id": "H6DtoCudMTpWSFvTBBJ0uAyKS6HfTpQf",
		"nodeType": "sequence",
		"parameters": []
	}
}